simulation/modelsim/asyncfifo_tb.vcd
$date
	Tue Sep 30 23:07:48 2025
$end
$version
	ModelSim Version 2020.1
$end
$timescale
	1ps
$end

$scope module asyncfifo_tb $end
$var parameter 32 ! DATA_WIDTH $end
$var parameter 32 " FIFO_DEPTH $end
$var parameter 32 # WR_CLK_PERIOD $end
$var parameter 32 $ RD_CLK_PERIOD $end
$var reg 1 % wr_clk $end
$var reg 1 & rd_clk $end
$var reg 1 ' wr_rst_n $end
$var reg 1 ( rd_rst_n $end
$var reg 1 ) wr_en $end
$var reg 1 * rd_en $end
$var reg 8 + wr_data [7:0] $end
$var wire 1 , rd_data [7] $end
$var wire 1 - rd_data [6] $end
$var wire 1 . rd_data [5] $end
$var wire 1 / rd_data [4] $end
$var wire 1 0 rd_data [3] $end
$var wire 1 1 rd_data [2] $end
$var wire 1 2 rd_data [1] $end
$var wire 1 3 rd_data [0] $end
$var wire 1 4 full $end
$var wire 1 5 empty $end
$var integer 32 6 i $end
$var integer 32 7 errors $end
$var reg 8 8 expected_data [7:0] $end

$scope task write_data $end
$var reg 8 9 data [7:0] $end
$upscope $end

$scope task enable_read $end
$upscope $end

$scope task disable_read $end
$upscope $end

$scope task check_read_data $end
$var reg 8 : expected [7:0] $end
$upscope $end

$scope module dut $end
$var parameter 32 ; DEPTH $end
$var parameter 32 < PTR_WIDTH $end
$var wire 1 = wclk $end
$var wire 1 > wrst_n $end
$var wire 1 ? rclk $end
$var wire 1 @ rrst_n $end
$var wire 1 A w_en $end
$var wire 1 B r_en $end
$var wire 1 C data_in [7] $end
$var wire 1 D data_in [6] $end
$var wire 1 E data_in [5] $end
$var wire 1 F data_in [4] $end
$var wire 1 G data_in [3] $end
$var wire 1 H data_in [2] $end
$var wire 1 I data_in [1] $end
$var wire 1 J data_in [0] $end
$var reg 8 K data_out [7:0] $end
$var reg 1 L full $end
$var reg 1 M empty $end
$var wire 1 N g_wptr_sync [3] $end
$var wire 1 O g_wptr_sync [2] $end
$var wire 1 P g_wptr_sync [1] $end
$var wire 1 Q g_wptr_sync [0] $end
$var wire 1 R g_rptr_sync [3] $end
$var wire 1 S g_rptr_sync [2] $end
$var wire 1 T g_rptr_sync [1] $end
$var wire 1 U g_rptr_sync [0] $end
$var wire 1 V b_wptr [3] $end
$var wire 1 W b_wptr [2] $end
$var wire 1 X b_wptr [1] $end
$var wire 1 Y b_wptr [0] $end
$var wire 1 Z b_rptr [3] $end
$var wire 1 [ b_rptr [2] $end
$var wire 1 \ b_rptr [1] $end
$var wire 1 ] b_rptr [0] $end
$var wire 1 ^ g_wptr [3] $end
$var wire 1 _ g_wptr [2] $end
$var wire 1 ` g_wptr [1] $end
$var wire 1 a g_wptr [0] $end
$var wire 1 b g_rptr [3] $end
$var wire 1 c g_rptr [2] $end
$var wire 1 d g_rptr [1] $end
$var wire 1 e g_rptr [0] $end
$var wire 1 f full_wire $end
$var wire 1 g empty_wire $end
$var wire 1 h data_out_wire [7] $end
$var wire 1 i data_out_wire [6] $end
$var wire 1 j data_out_wire [5] $end
$var wire 1 k data_out_wire [4] $end
$var wire 1 l data_out_wire [3] $end
$var wire 1 m data_out_wire [2] $end
$var wire 1 n data_out_wire [1] $end
$var wire 1 o data_out_wire [0] $end

$scope module sync_wptr $end
$var parameter 32 p WIDTH $end
$var wire 1 ? clk $end
$var wire 1 @ rst_n $end
$var wire 1 ^ d_in [3] $end
$var wire 1 _ d_in [2] $end
$var wire 1 ` d_in [1] $end
$var wire 1 a d_in [0] $end
$var reg 4 q d_out [3:0] $end
$var reg 4 r q1 [3:0] $end
$upscope $end

$scope module sync_rptr $end
$var parameter 32 s WIDTH $end
$var wire 1 = clk $end
$var wire 1 > rst_n $end
$var wire 1 b d_in [3] $end
$var wire 1 c d_in [2] $end
$var wire 1 d d_in [1] $end
$var wire 1 e d_in [0] $end
$var reg 4 t d_out [3:0] $end
$var reg 4 u q1 [3:0] $end
$upscope $end

$scope module wptr_h $end
$var parameter 32 v PTR_WIDTH $end
$var wire 1 = wclk $end
$var wire 1 > wrst_n $end
$var wire 1 A w_en $end
$var wire 1 R g_rptr_sync [3] $end
$var wire 1 S g_rptr_sync [2] $end
$var wire 1 T g_rptr_sync [1] $end
$var wire 1 U g_rptr_sync [0] $end
$var reg 4 w b_wptr [3:0] $end
$var reg 4 x g_wptr [3:0] $end
$var reg 1 y full $end
$var wire 1 z b_wptr_next [3] $end
$var wire 1 { b_wptr_next [2] $end
$var wire 1 | b_wptr_next [1] $end
$var wire 1 } b_wptr_next [0] $end
$var wire 1 ~ g_wptr_next [3] $end
$var wire 1 !! g_wptr_next [2] $end
$var wire 1 "! g_wptr_next [1] $end
$var wire 1 #! g_wptr_next [0] $end
$var wire 1 $! wfull $end
$upscope $end

$scope module rptr_h $end
$var parameter 32 %! PTR_WIDTH $end
$var wire 1 ? rclk $end
$var wire 1 @ rrst_n $end
$var wire 1 B r_en $end
$var wire 1 N g_wptr_sync [3] $end
$var wire 1 O g_wptr_sync [2] $end
$var wire 1 P g_wptr_sync [1] $end
$var wire 1 Q g_wptr_sync [0] $end
$var reg 4 &! b_rptr [3:0] $end
$var reg 4 '! g_rptr [3:0] $end
$var reg 1 (! empty $end
$var wire 1 )! b_rptr_next [3] $end
$var wire 1 *! b_rptr_next [2] $end
$var wire 1 +! b_rptr_next [1] $end
$var wire 1 ,! b_rptr_next [0] $end
$var wire 1 -! g_rptr_next [3] $end
$var wire 1 .! g_rptr_next [2] $end
$var wire 1 /! g_rptr_next [1] $end
$var wire 1 0! g_rptr_next [0] $end
$var wire 1 1! rempty $end
$upscope $end

$scope module fifom $end
$var parameter 32 2! DEPTH $end
$var parameter 32 3! DATA_WIDTH $end
$var parameter 32 4! PTR_WIDTH $end
$var wire 1 = wclk $end
$var wire 1 A w_en $end
$var wire 1 ? rclk $end
$var wire 1 B r_en $end
$var wire 1 V b_wptr [3] $end
$var wire 1 W b_wptr [2] $end
$var wire 1 X b_wptr [1] $end
$var wire 1 Y b_wptr [0] $end
$var wire 1 Z b_rptr [3] $end
$var wire 1 [ b_rptr [2] $end
$var wire 1 \ b_rptr [1] $end
$var wire 1 ] b_rptr [0] $end
$var wire 1 C data_in [7] $end
$var wire 1 D data_in [6] $end
$var wire 1 E data_in [5] $end
$var wire 1 F data_in [4] $end
$var wire 1 G data_in [3] $end
$var wire 1 H data_in [2] $end
$var wire 1 I data_in [1] $end
$var wire 1 J data_in [0] $end
$var wire 1 f full $end
$var wire 1 g empty $end
$var reg 8 5! data_out [7:0] $end
$upscope $end
$upscope $end
$upscope $end
$enddefinitions $end
#0
$dumpvars
0%
0&
0'
0(
0)
0*
b0 +
bx 8
bx K
xL
xM
bx q
bx r
bx t
bx u
b0 w
b0 x
0y
b0 &!
b0 '!
1(!
bx 5!
bx 9
bx :
b1000 !
b10000 "
b1010 #
b1111 $
b1000 ;
b11 <
b11 p
b11 s
b11 v
b11 %!
b1000 2!
b1000 3!
b11 4!
bx 6
b0 7
x3
x2
x1
x0
x/
x.
x-
x,
x4
x5
xQ
xP
xO
xN
xU
xT
xS
xR
0Y
0X
0W
0V
0]
0\
0[
0Z
0a
0`
0_
0^
0e
0d
0c
0b
0f
1g
xo
xn
xm
xl
xk
xj
xi
xh
0}
0|
0{
0z
0#!
0"!
0!!
0~
x$!
0,!
0+!
0*!
0)!
00!
0/!
0.!
0-!
x1!
0B
0@
0?
0J
0I
0H
0G
0F
0E
0D
0C
0A
0>
0=
$end
#5000
1%
1=
b0 u
b0 t
0U
0T
0S
0R
0$!
#7000
1&
1?
b0 r
b0 q
0L
1M
0Q
0P
0O
0N
04
15
11!
#10000
0%
0=
#14000
0&
0?
#15000
1%
1=
#20000
0%
0=
#21000
1&
1?
#25000
1%
1=
#28000
0&
0?
#30000
0%
0=
#35000
1&
1%
1?
1=
#40000
0%
0=
#42000
0&
0?
#45000
1%
1=
#49000
1&
1?
#50000
1'
1(
0%
1>
1@
0=
#55000
1%
1=
#56000
0&
0?
#60000
0%
0=
#63000
1&
1?
#65000
1%
1=
#70000
b0 6
b0 9
0&
0%
0?
0=
#75000
1%
1=
1)
1A
1}
1#!
#77000
1&
1?
#80000
0%
0=
#84000
0&
0?
#85000
1%
1=
0)
0A
0}
0#!
b1 w
b1 x
1a
1Y
1}
1#!
#90000
0%
0=
#91000
1&
1?
1*
1B
b1 r
#95000
1%
1=
#98000
0&
0?
#100000
0%
0=
#105000
1&
1%
1?
1=
b1 q
1Q
01!
#110000
0%
0=
#112000
0&
0?
#115000
1%
1=
#119000
1&
1?
0(!
1,!
0g
10!
11!
#120000
0%
0=
#121000
b0 :
b1 7
#125000
1%
1=
#126000
0&
0?
#130000
0%
0=
#133000
1&
1?
b1 &!
b1 '!
1(!
b0 5!
0M
1g
0o
0n
0m
0l
0k
0j
0i
0h
1e
1]
05
#135000
1%
1=
b1 u
#136000
b1 6
b1 9
#140000
0&
0%
0?
0=
#145000
1%
1=
1)
b1 +
1A
1J
0}
1|
1"!
b1 t
1U
#147000
1&
1?
1M
b0 K
15
03
02
01
00
0/
0.
0-
0,
#150000
0%
0=
#154000
0&
0?
#155000
1%
1=
0)
0A
1}
0|
0"!
b10 w
b11 x
1`
0Y
1X
0}
1|
1"!
#160000
0%
0=
#161000
1&
1?
b11 r
#165000
1%
1=
#168000
0&
0?
#170000
0%
0=
#175000
1&
1%
1?
1=
b11 q
1P
01!
#180000
0%
0=
#182000
0&
0?
#185000
1%
1=
#189000
1&
1?
0(!
0,!
1+!
0g
1/!
11!
#190000
0%
0=
#191000
b1 :
b10 7
#195000
1%
1=
#196000
0&
0?
#200000
0%
0=
#203000
1&
1?
b10 &!
b11 '!
1(!
b1 5!
0M
1g
1o
1d
0]
1\
05
#205000
1%
1=
b11 u
#206000
b10 6
b10 9
#210000
0&
0%
0?
0=
#215000
1%
1=
1)
b10 +
1A
0J
1I
1}
0#!
b11 t
1T
#217000
1&
1?
1M
b1 K
15
13
#220000
0%
0=
#224000
0&
0?
#225000
1%
1=
0)
0A
0}
1#!
b11 w
b10 x
0a
1Y
1}
0#!
#230000
0%
0=
#231000
1&
1?
b10 r
#235000
1%
1=
#238000
0&
0?
#240000
0%
0=
#245000
1&
1%
1?
1=
b10 q
0Q
01!
#250000
0%
0=
#252000
0&
0?
#255000
1%
1=
#259000
1&
1?
0(!
1,!
0g
00!
11!
#260000
0%
0=
#261000
b10 :
b11 7
#265000
1%
1=
#266000
0&
0?
#270000
0%
0=
#273000
1&
1?
b11 &!
b10 '!
1(!
b10 5!
0M
1g
0o
1n
0e
1]
05
#275000
1%
1=
b10 u
#276000
b11 6
b11 9
#280000
0&
0%
0?
0=
#285000
1%
1=
1)
b11 +
1A
1J
0}
0|
1{
1!!
b10 t
0U
#287000
1&
1?
1M
b10 K
15
03
12
#290000
0%
0=
#294000
0&
0?
#295000
1%
1=
0)
0A
1}
1|
0{
0!!
b100 w
b110 x
1_
0Y
0X
1W
0}
0|
1{
1!!
#300000
0%
0=
#301000
1&
1?
b110 r
#305000
1%
1=
#308000
0&
0?
#310000
0%
0=
#315000
1&
1%
1?
1=
b110 q
1O
01!
#320000
0%
0=
#322000
0&
0?
#325000
1%
1=
#329000
1&
1?
0(!
0,!
0+!
1*!
0g
1.!
11!
#330000
0%
0=
#331000
b11 :
b100 7
#335000
1%
1=
#336000
0&
0?
#340000
0%
0=
#343000
1&
1?
b100 &!
b110 '!
1(!
b11 5!
0M
1g
1o
1c
0]
0\
1[
05
#345000
1%
1=
b110 u
#346000
b100 6
b100 9
#350000
0&
0%
0?
0=
#355000
1%
1=
1)
b100 +
1A
0J
0I
1H
1}
1#!
b110 t
1S
#357000
1&
1?
1M
b11 K
15
13
#360000
0%
0=
#364000
0&
0?
#365000
1%
1=
0)
0A
0}
0#!
b101 w
b111 x
1a
1Y
1}
1#!
#370000
0%
0=
#371000
1&
1?
b111 r
#375000
1%
1=
#378000
0&
0?
#380000
0%
0=
#385000
1&
1%
1?
1=
b111 q
1Q
01!
#390000
0%
0=
#392000
0&
0?
#395000
1%
1=
#399000
1&
1?
0(!
1,!
0g
10!
11!
#400000
0%
0=
#401000
b100 :
b101 7
#405000
1%
1=
#406000
0&
0?
#410000
0%
0=
#413000
1&
1?
b101 &!
b111 '!
1(!
b100 5!
0M
1g
0o
0n
1m
1e
1]
05
#415000
1%
1=
b111 u
#416000
b101 6
b101 9
#420000
0&
0%
0?
0=
#425000
1%
1=
1)
b101 +
1A
1J
0}
1|
0"!
b111 t
1U
#427000
1&
1?
1M
b100 K
15
03
02
11
#430000
0%
0=
#434000
0&
0?
#435000
1%
1=
0)
0A
1}
0|
1"!
b110 w
b101 x
0`
0Y
1X
0}
1|
0"!
#440000
0%
0=
#441000
1&
1?
b101 r
#445000
1%
1=
#448000
0&
0?
#450000
0%
0=
#455000
1&
1%
1?
1=
b101 q
0P
01!
#460000
0%
0=
#462000
0&
0?
#465000
1%
1=
#469000
1&
1?
0(!
0,!
1+!
0g
0/!
11!
#470000
0%
0=
#471000
b101 :
b110 7
#475000
1%
1=
#476000
0&
0?
#480000
0%
0=
#483000
1&
1?
b110 &!
b101 '!
1(!
b101 5!
0M
1g
1o
0d
0]
1\
05
#485000
1%
1=
b101 u
#486000
b110 6
b110 9
#490000
0&
0%
0?
0=
#495000
1%
1=
1)
b110 +
1A
0J
1I
1}
0#!
b101 t
0T
#497000
1&
1?
1M
b101 K
15
13
#500000
0%
0=
#504000
0&
0?
#505000
1%
1=
0)
0A
0}
1#!
b111 w
b100 x
0a
1Y
1}
0#!
#510000
0%
0=
#511000
1&
1?
b100 r
#515000
1%
1=
#518000
0&
0?
#520000
0%
0=
#525000
1&
1%
1?
1=
b100 q
0Q
01!
#530000
0%
0=
#532000
0&
0?
#535000
1%
1=
#539000
1&
1?
0(!
1,!
0g
00!
11!
#540000
0%
0=
#541000
b110 :
b111 7
#545000
1%
1=
#546000
0&
0?
#550000
0%
0=
#553000
1&
1?
b111 &!
b100 '!
1(!
b110 5!
0M
1g
0o
1n
0e
1]
05
#555000
1%
1=
b100 u
#556000
b111 6
b111 9
#560000
0&
0%
0?
0=
#565000
1%
1=
1)
b111 +
1A
1J
0}
0|
0{
1z
1~
b100 t
0U
#567000
1&
1?
1M
b110 K
15
03
12
#570000
0%
0=
#574000
0&
0?
#575000
1%
1=
0)
0A
1}
1|
1{
0z
0~
b1000 w
b1100 x
1^
0Y
0X
0W
1V
0}
0|
0{
1z
1~
#580000
0%
0=
#581000
1&
1?
b1100 r
#585000
1%
1=
#588000
0&
0?
#590000
0%
0=
#595000
1&
1%
1?
1=
b1100 q
1N
01!
#600000
0%
0=
#602000
0&
0?
#605000
1%
1=
#609000
1&
1?
0(!
0,!
0+!
0*!
1)!
0g
1-!
11!
#610000
0%
0=
#611000
b111 :
b1000 7
#615000
1%
1=
#616000
0&
0?
#620000
0%
0=
#623000
1&
1?
b1000 &!
b1100 '!
1(!
b111 5!
0M
1g
1o
1b
0]
0\
0[
1Z
05
#625000
1%
1=
b1100 u
#626000
b1000 6
b1000 9
#630000
0&
0%
0?
0=
#635000
1%
1=
1)
b1000 +
1A
0J
0I
0H
1G
1}
1#!
b1100 t
1R
#637000
1&
1?
1M
b111 K
15
13
#640000
0%
0=
#644000
0&
0?
#645000
1%
1=
0)
0A
0}
0#!
b1001 w
b1101 x
1a
1Y
1}
1#!
#650000
0%
0=
#651000
1&
1?
b1101 r
#655000
1%
1=
#658000
0&
0?
#660000
0%
0=
#665000
1&
1%
1?
1=
b1101 q
1Q
01!
#670000
0%
0=
#672000
0&
0?
#675000
1%
1=
#679000
1&
1?
0(!
1,!
0g
10!
11!
#680000
0%
0=
#681000
b1000 :
b1001 7
#685000
1%
1=
#686000
0&
0?
#690000
0%
0=
#693000
1&
1?
b1001 &!
b1101 '!
1(!
b1000 5!
0M
1g
0o
0n
0m
1l
1e
1]
05
#695000
1%
1=
b1101 u
#696000
b1001 6
#700000
0&
0%
0?
0=
#705000
1%
1=
b1101 t
1U
#707000
1&
1?
0*
0B
1M
b1000 K
15
03
02
01
10
